[
  {
    "ID": "2",
    "BUILDING_NAME": "Lighthouse",
    "BUILDING_NUMBER": "123",
    "SUB_BUILDING_NUMBER": "11",
    "STREET_NUMBER": "111",
    "ADDRESS_LINE_1": "111 River St",
    "ADDRESS_LINE_2": "23a",
    "ADDRESS_LINE_3": "d",
    "CITY": "Hawesville",
    "REGION_NM": "KENTUCKY",
    "REGION_CD": "KY",
    "PO_BOX": "123",
    "POSTAL_CODE": "42348",
    "COUNTRY_NAME": "United States",
    "COUNTRY_ISO2": "US",
    "COUNTRY_ISO3": "USA",
    "AD_MOBILITY_SCORE": 2,
    "AD_RESULT_PERCENTAGE": 53.99,
    "AD_MATCH_CODE": "Q3",
    "AD_ADDRESS_TYPE": "S",
    "USER_OVERRIDE_FLAG": "S"
  },
  {
    "ID": "3",
    "STREET_NUMBER": "111",
    "ADDRESS_LINE_1": "111 River Dr",
    "CITY": "Marion",
    "REGION_NM": "KENTUCKY",
    "REGION_CD": "KY",
    "POSTAL_CODE": "42064",
    "COUNTRY_NAME": "United States",
    "COUNTRY_ISO2": "US",
    "COUNTRY_ISO3": "USA",
    "AD_MOBILITY_SCORE": 2,
    "AD_RESULT_PERCENTAGE": 45.91,
    "AD_MATCH_CODE": "Q3",
    "AD_ADDRESS_TYPE": "S",
    "USER_OVERRIDE_FLAG": "S"
  }
]