{
  "priority" : 1,
  "request": {
    "method": "PUT",
    "urlPattern": "/subscriptions/.*/shippingAddress",
    "bodyPatterns" : [
      {"matchesJsonPath": "$..[?(@.city == 'malformed-request-test-value')]"}
    ]
  },
  "response": {
    "headers": {
      "Content-Type": "application/json"
    },
    "status": 400,
    "bodyFileName": "esb/subscription/shippingAddress/response_wiley_esb_subscription_shipping_address_error_400.json"
  }
}
