{
  "priority": 10,
  "request": {
    "method": "DELETE",
    "urlPattern": "/b2b/accounts/[^/]+/shippingAddresses/[^/]+",
    "headers": {
      "Content-Type": {
        "equalTo": "application/json"
      },
      "Accept": {
        "equalTo": "application/json"
      },
      "Src": {
        "equalTo": "hybris"
      },
      "TransactionId": {
        "matches": ".*"
      },
      "Authorization": {
        "matches": ".+"
      }
    }
  },
  "response": {
    "headers": {
      "Content-Type": "application/json"
    },
    "status": 204
  }
}
