{
  "totalTax": 22.33,
  "entries": [
    {
      "quantity": 5,
      "totalPrice": 1002.75,
      "isbn": "222222222224",
      "basePrice": 200.55,
      "inventoryStatuses": [
        {
          "quantity": 5,
          "estimatedDeliveryDate": "2017-07-04T12:08:56.235-07:00",
          "status": "IN_STOCK"
        }
      ]
    }
  ],
  "totalPrice": 1035.01,
  "subtotal": 1002.75,
  "totalDiscount": 0,
  "deliveryCost": 10.34
}