{
  "gatewayEntryPoint": "WEB_SERVICES_API",
  "merchant": "TESTWILEYHYB-US",
  "response": {
    "acquirerCode": "000",
    "cardSecurityCode": {
      "acquirerCode": "M",
      "gatewayCode": "MATCH"
    },
    "gatewayCode": "APPROVED"
  },
  "result": "ERROR",
  "transaction": {
    "acquirer": {
      "id": "COMPASS",
      "merchantId": "158426"
    },
    "amount": 0.00,
    "currency": "USD",
    "frequency": "SINGLE",
    "id": "000000000006",
    "receipt": "RR2217",
    "source": "INTERNET",
    "terminal": "WIL00002",
    "type": "VERIFICATION"
  },
  "version": "44"
}