{
  "init": "Go",
  "initmethod": "update",
  "clearhmc": "false",
  "essential": "false",
  "localizetypes": "false",
  "wileyasinitialdata_sample": "true",
  "wileyasinitialdata_deactivateJobs": [
    "yes"
  ],
  "wileyasinitialdata_importCoreData": [
    "no"
  ],
  "wileyasinitialdata_importSampleData": [
    "no"
  ],
  "wileyasinitialdata_importPerfData": [
    "no"
  ],
  "wileyasinitialdata_importUatData": [
    "yes"
  ],
  "wileyasinitialdata_importUat2Data": [
    "no"
  ],
  "wileyasinitialdata_importProdData": [
    "no"
  ],
  "wileyasinitialdata_importUserOrderData": [
    "no"
  ],
  "wileyasinitialdata_activateJobs": [
    "yes"
  ]
}
