{
  "request": {
    "method": "PUT",
    "urlPattern": "/subscriptions/test-external-code/shippingAddress",
    "headers": {
      "Content-Type": {
        "equalTo": "application/json"
      },
      "Accept": {
        "equalTo": "application/json"
      },
      "Src": {
        "equalTo": "hybris"
      },
      "TransactionId": {
        "matches": ".*"
      },
      "Authorization": {
        "equalTo": "bearer bd55e2ce-92b0-46a2-a8f4-82a69440b586"
      }
    },
    "bodyPatterns": [
      {
        "equalToJson": "{\"postcode\":\"18551\"}",
        "ignoreArrayOrder": true,
        "ignoreExtraElements": true
      },
      {
        "equalToJson": "{\"country\":\"US\"}",
        "ignoreArrayOrder": true,
        "ignoreExtraElements": true
      },
      {
        "equalToJson": "{\"state\":\"AL\"}",
        "ignoreArrayOrder": true,
        "ignoreExtraElements": true
      },
      {
        "equalToJson": "{\"city\":\"Sagard\"}",
        "ignoreArrayOrder": true,
        "ignoreExtraElements": true
      },
      {
        "equalToJson": "{\"line1\":\"delivery address line 1\"}",
        "ignoreArrayOrder": true,
        "ignoreExtraElements": true
      },
      {
        "equalToJson": "{\"line2\":\"delivery address line 2\"}",
        "ignoreArrayOrder": true,
        "ignoreExtraElements": true
      },
      {
        "equalToJson": "{\"firstName\":\"TestCustomerFirstName\"}",
        "ignoreArrayOrder": true,
        "ignoreExtraElements": true
      },
      {
        "equalToJson": "{\"lastName\":\"TestCustomerLastName\"}",
        "ignoreArrayOrder": true,
        "ignoreExtraElements": true
      },
      {
        "equalToJson": "{\"phoneNumber\":\"+375291234567\"}",
        "ignoreArrayOrder": true,
        "ignoreExtraElements": true
      }
    ]
  },
  "response": {
    "headers": {
      "Content-Type": "application/json"
    }
  }
}
