{
  "request": {
    "method": "POST",
    "urlPattern": "/carts/delivery/options",
    "headers": {
      "Content-Type": {
        "equalTo": "application/json"
      },
      "Accept": {
        "equalTo": "application/json"
      },
      "Src": {
        "equalTo": "hybris"
      },
      "TransactionId": {
        "equalTo": "randomString"
      },
      "Authorization": {
        "equalTo": "bearer bd55e2ce-92b0-46a2-a8f4-82a69440b586"
      }
    },
    "bodyPatterns": [
      {
        "equalToJson": "{\"country\":\"US\"}",
        "ignoreArrayOrder": true,
        "ignoreExtraElements": true
      },
      {
        "equalToJson": "{\"currency\":\"USD\"}",
        "ignoreArrayOrder": true,
        "ignoreExtraElements": true
      },
      {
        "equalToJson": "{\"language\":\"en\"}",
        "ignoreArrayOrder": true,
        "ignoreExtraElements": true
      },
      {
        "equalToJson": "{\"deliveryAddress\":{\"postcode\":\"22056\",\"country\":\"US\",\"state\":\"AL\",\"city\":\"Test City\",\"line1\":\"Line 1 Delivery Address\",\"line2\":\"Line 2 Delivery Address\"}}",
        "ignoreArrayOrder": true,
        "ignoreExtraElements": true
      },
      {
        "equalToJson": "{\"entries\":[{\"productCode\":\"WDIGITAL_PRODUCT\",\"quantity\":55,\"isbn\":\"111111111112\",\"shipFrom\":{\"postcode\":\"7030\",\"country\":\"US\",\"state\":\"NJ\",\"city\":\"Hoboken\",\"line1\":\"River St\",\"line2\":\"111\"}},{\"productCode\":\"WCOM_B2C_DIGITAL\",\"quantity\":1,\"isbn\":\"111111111113\",\"shipFrom\":{\"postcode\":\"QLD 4064\",\"country\":\"AU\",\"city\":\"Milton\",\"line1\":\"McDougall\",\"line2\":\"42\"}}]}",
        "ignoreArrayOrder": true,
        "ignoreExtraElements": true
      }
    ]
  },
  "response": {
    "headers": {
      "Content-Type": "application/json"
    },
    "status": 500
  }
}
