{
  "priority": 1,
  "request": {
    "method": "GET",
    "urlPathPattern": "/sessions/test_alm_id",
    "headers": {
      "Content-Type": {
        "equalTo": "application/json"
      },
      "Accept": {
        "equalTo": "application/json"
      },
      "x-application-id": {
        "matches": ".*"
      },
      "x-Request-ID": {
        "matches": ".*"
      }
    }
  },
  "response": {
    "headers": {
      "Content-Type": "application/json;charset=utf-8",
      "Content-Encoding": "identity"
    },
    "status": 200
  }
}