{
  "priority": 2,
  "request": {
    "method": "GET",
    "urlPathPattern": "/sessions/asagent1",
    "headers": {
      "Content-Type": {
        "equalTo": "application/json"
      },
      "Accept": {
        "equalTo": "application/json"
      },
      "x-application-id": {
        "matches": ".*"
      },
      "x-Request-ID": {
        "matches": ".*"
      }
    }
  },
  "response": {
    "headers": {
      "Content-Type": "application/json;charset=utf-8",
      "Content-Encoding": "identity"
    },
    "status": 200,
    "bodyFileName": "alm/authentication/response_validate_session_token_200_agent.json"
  }
}