{
  "priority" : 1,
  "request": {
    "method": "GET",
    "urlPattern": "/b2b/accounts/sapAccount3/ownership\\?isbn=222222222224",
    "headers": {
      "Content-Type": {
        "equalTo": "application/json"
      },
      "Accept": {
        "equalTo": "application/json"
      },
      "Src": {
        "equalTo": "hybris"
      },
      "TransactionId": {
        "matches": ".*"
      },

      "Authorization": {
        "matches": ".+"
      }
    }
  },
  "response": {
    "headers": {
      "Content-Type": "application/json"
    },
    "status": 200,
    "bodyFileName": "checklicense/response_checkLicense_success_true.json"
  }
}