{
  "priority": 1,
  "request": {
    "method": "PUT",
    "urlPattern": "/b2b/accounts/[^/]+/carts/[^/]+",
    "headers": {
      "Content-Type": {
        "equalTo": "application/json"
      },
      "Accept": {
        "equalTo": "application/json"
      },
      "Src": {
        "equalTo": "hybris"
      },
      "TransactionId": {
        "matches": ".*"
      },
      "Authorization": {
        "matches": ".+"
      }
    },
    "bodyPatterns": [
      {
        "matchesJsonPath": "$.userId"
      },
      {
        "matchesJsonPath": "$.country"
      },
      {
        "matchesJsonPath": "$.currency"
      },
      {
        "equalToJson": "{\"entries\":[{\"isbn\":\"222222222223\",\"quantity\":1}]}",
        "ignoreArrayOrder": true,
        "ignoreExtraElements": true
      },
      {
        "equalToJson": "{\"discountCodes\":[\"EXTERNAL_VOUCHER_INVALID\"]}",
        "ignoreArrayOrder": true,
        "ignoreExtraElements": true
      }
    ]
  },
  "response": {
    "headers": {
      "Content-Type": "application/json"
    },
    "status": 200,
    "bodyFileName": "esb/verifyandcalculatecart/response_b2b_cartCalculation_WCOM_B2B_DIGITAL_Apply_Invalid_Voucher.json"
  }
}
