{
  "request": {
    "method": "GET",
    "urlPattern": "/b2b/accounts/httperror503"
  },
  "response": {
    "headers": {
      "Content-Type": "application/json"
    },
    "status": 503,
	"body": "{\"code\":\"503\",\"description\":\"WireMock 503 error scenario\"}"
  }
}