{
  "priority": 2,
  "request": {
    "urlPattern": "/orders",
    "method": "POST",
    "headers": {
      "Content-Type": {
        "equalTo": "application/json"
      },
      "Accept": {
        "equalTo": "application/json"
      },
      "src": {
        "equalTo": "hybris"
      },
      "transactionId": {
        "matches": ".*"
      }
    },
    "bodyPatterns": [
      {
        "matches": "^(.*)\"userId\"\\s*:\\s*\"service_unavailible@hybris.com\"(.*)$"
      }
    ]
  },
  "response": {
    "status": 503,
    "headers": {
      "Content-Type": "application/json"
    },
    "jsonBody": {
      "code" : "503",
      "message" : "service unavailible error"
    }
  }
}
