{
  "request": {
    "method": "POST",
    "urlPattern": "/b2b/accounts/.*/purchaseOrderNumbers",
	"bodyPatterns": [
      {
	    "matches": ".*httperror503.*"
      }
    ]
  },
  "response": {
    "headers": {
      "Content-Type": "application/json"
    },
    "status": 503,
	"body": "{\"code\":\"503\",\"description\":\"WireMock 503 error scenario\"}"
  }
}