{
  "priority": 1,
  "request": {
    "method": "POST",
    "urlPathPattern": "/v1/taxes/calculate",
    "headers": {
      "Content-Type": {
        "equalTo": "application/json"
      },
      "Accept": {
        "equalTo": "application/json"
      }
    },
    "bodyPatterns": [
      {
        "matchesJsonPath": {
          "expression": "$..amount",
          "contains": ".05"
        }
      }
    ]
  },
  "response": {
    "headers": {
      "Content-Type": "application/json;"
    },
    "status": 400,
    "bodyFileName": "taxes/calculate/response-taxes-calculate-err005.json"
  }
}