{
  "init": "Go",
  "initmethod": "update",
  "wileyinitialdata_sample": "true",
  "basecommerce_create geocoding cron job": [
    "no"
  ],
  "subscriptionservices_importSampleData": [
    "no"
  ],
  "lucenesearch_rebuild.indexes": [
    "true"
  ],
  "lucenesearch_update.index.configuration": [
    "true"
  ],
  "wileycockpits_importCustomReports": [
    "no"
  ],
  "wileycore_accessRights": [
    "no"
  ],
  "wileytest_createTestData": [
    "no"
  ],
  "wileyinitialdata_site_ags": [
    "no"
  ],
  "wileyinitialdata_site_wel": [
    "yes"
  ],
  "wileyinitialdata_importCoreData": [
    "no"
  ],
  "wileyinitialdata_importSampleData": [
    "yes"
  ],
  "wileyinitialdata_importExportedData": [
    "no"
  ],
  "wileyinitialdata_activateSolrCronJobs": [
    "yes"
  ],
  "wileywstest_importCoreData": [
    "no"
  ],
  "wileywstest_importSampleData": [
    "no"
  ],
  "wileywstest_activateSolrCronJobs": [
    "no"
  ]
}