{
  "billing": {
    "address": {
      "city": "City",
      "country": "USA",
      "postcodeZip": "223344",
      "street": "Line 1"
    }
  },
  "gatewayEntryPoint": "WEB_SERVICES_API",
  "merchant": "TESTWILEYHYB-US",
  "order": {
    "amount": 118.00,
    "creationTime": "2018-05-25T09:10:37.385Z",
    "currency": "AUD",
    "id": "5919a38e-517c-4015-acb5-826aacf402c6",
    "status": "CAPTURED",
    "totalAuthorizedAmount": 118.00,
    "totalCapturedAmount": 118.00,
    "totalRefundedAmount": 0.00
  },
  "response": {
    "acquirerCode": "00",
    "acquirerMessage": "Approved",
    "gatewayCode": "APPROVED"
  },
  "result": "SUCCESS",
  "sourceOfFunds": {
    "provided": {
      "card": {
        "brand": "MASTERCARD",
        "expiry": {
          "month": "5",
          "year": "21"
        },
        "fundingMethod": "CREDIT",
        "issuer": "BANCO DEL PICHINCHA, C.A.",
        "number": "512345xxxxxx2346",
        "scheme": "MASTERCARD"
      }
    },
    "token": "5123453730232346",
    "type": "CARD"
  },
  "timeOfRecord": "2018-05-25T09:10:37.385Z",
  "transaction": {
    "acquirer": {
      "batch": 70,
      "id": "COMPASS",
      "merchantId": "WILEYAU-AUJW"
    },
    "amount": 118.00,
    "authorizationCode": "006817",
    "currency": "USD",
    "frequency": "SINGLE",
    "id": "000000001001",
    "reference": "0257000000001001",
    "source": "INTERNET",
    "terminal": "WIL00002",
    "type": "CAPTURE"
  },
  "version": "44"
}