{
  "merchant": "TESTWILEYHYB-US",
  "session": {
    "id": "asEditTestMPGSSessionId",
    "updateStatus": "SUCCESS",
    "version": "bc3d66ae02"
  },
  "sourceOfFunds": {
    "provided": {
      "card": {
        "brand": "VISA",
        "expiry": {
          "month": "5",
          "year": "21"
        },
        "fundingMethod": "DEBIT",
        "number": "450875xxxxxx1019",
        "scheme": "VISA",
        "securityCode": "xxx"
      }
    },
    "type": "CARD"
  },
  "version": "44"
}