{
  "priority": 100,
  "request": {
    "method": "POST",
    "urlPathPattern": "/es/v1/taxes/calculate",
    "headers": {
      "Content-Type": {
        "equalTo": "application/json"
      },
      "Accept": {
        "equalTo": "application/json"
      }
    }
  },
  "response": {
    "headers": {
      "Content-Type": "application/json;"
    },
    "status": 200,
    "transformers": ["tax-response-transformer"]
  }
}