{
  "articleName": "Test article",
  "doi": "10.1111/medu.12601",
  "journalId": "121212121",
  "journalName": "Test journal",
  "pictureUrl": "https://static1.squarespace.com/static/54dd763ce4b01f6b05bab7db/t/5a19e2e9085229dccc8fdfaa/1511645937570/logos-014__2_.png"
}