{
  "priority": 1,
  "request": {
    "url": "/users/authenticate",
    "method": "POST",
    "bodyPatterns": [
      {
        "matchesJsonPath": "$.userCredentials[?(@.userId == 'notfound@user.com')]"
      },
      {
        "matchesJsonPath": "$.userCredentials[?(@.password == 'anyPassword')]"
      }
    ],
    "headers": {
      "authorization": {
         "equalTo": "bearer bd55e2ce-92b0-46a2-a8f4-82a69440b586"
      }
    }
  },
  "response": {
    "status": 404,
    "headers": {
      "Content-Type": "application/json"
    }
  }
}




