{
  "priority": 1,
  "request": {
    "url": "/users/authenticate",
    "method": "POST",
    "bodyPatterns": [
      {
        "matchesJsonPath": "$..[?(@.userId == 'notfound@user.com')]"
      }
    ],
    "headers": {
      "authorization": {
        "matches": ".+"
      }
    }
  },
  "response": {
    "status": 404,
    "headers": {
      "Content-Type": "application/json"
    },
    "bodyFileName": "alm/authenticate/response_notFound.json"
  }
}




