{
  "cardId": 95,
  "entries": [
    {
      "isbn": "WCOM_VARIANT_SET",
      "quantity": 333,
      "originalPrice": 666.66,
      "discountedPrice": 555.55
    }
  ],
  "totalQuantity": 444,
  "subtotalPrice": 132.13
}