{
  "cardId": 94,
  "entries": [
    {
      "isbn": "WCOM_VARIANT_SET_COMPONENT",
      "quantity": 111,
      "originalPrice": 999.99,
      "discountedPrice": 888.88
    }
  ],
  "totalQuantity": 222,
  "subtotalPrice": 777.77
}