{
  "billing": {
    "address": {
      "city": "Hawesville",
      "country": "Australia",
      "postcodeZip": "42348",
      "street": "111 River St, 23a"
    }
  },
  "gatewayEntryPoint": "WEB_SERVICES_API",
  "merchant": "TESTWLYHYB-AUJW",
  "order": {
    "amount": 0.00,
    "creationTime": "2018-06-28T19:08:49.750Z",
    "currency": "AUD",
    "id": "529720a1-58e5-4a2e-aa52-ce340217f6c7",
    "status": "VERIFIED",
    "totalAuthorizedAmount": 0.00,
    "totalCapturedAmount": 0.00,
    "totalRefundedAmount": 0.00
  },
  "response": {
    "acquirerCode": "000",
    "cardSecurityCode": {
      "acquirerCode": "M",
      "gatewayCode": "MATCH"
    },
    "gatewayCode": "APPROVED"
  },
  "result": "SUCCESS",
  "risk": {
    "response": {
      "gatewayCode": "ACCEPTED",
      "review": {
        "decision": "NOT_REQUIRED"
      },
      "rule": [{
        "data": "512345",
        "name": "MERCHANT_BIN_RANGE",
        "recommendation": "NO_ACTION",
        "type": "MERCHANT_RULE"
      },
        {
          "data": "M",
          "name": "MERCHANT_CSC",
          "recommendation": "NO_ACTION",
          "type": "MERCHANT_RULE"
        },
        {
          "name": "SUSPECT_CARD_LIST",
          "recommendation": "NO_ACTION",
          "type": "MERCHANT_RULE"
        },
        {
          "name": "TRUSTED_CARD_LIST",
          "recommendation": "NO_ACTION",
          "type": "MERCHANT_RULE"
        },
        {
          "data": "512345",
          "name": "MSO_BIN_RANGE",
          "recommendation": "NO_ACTION",
          "type": "MSO_RULE"
        },
        {
          "data": "M",
          "name": "MSO_CSC",
          "recommendation": "NO_ACTION",
          "type": "MSO_RULE"
        }]
    }
  },
  "sourceOfFunds": {
    "provided": {
      "card": {
        "brand": "MASTERCARD",
        "expiry": {
          "month": "1",
          "year": "18"
        },
        "fundingMethod": "CREDIT",
        "issuer": "BANCO DEL PICHINCHA, C.A.",
        "number": "512345xxxxxx2346",
        "scheme": "MASTERCARD"
      }
    },
    "type": "CARD"
  },
  "timeOfRecord": "2018-06-28T19:08:49.750Z",
  "transaction": {
    "acquirer": {
      "id": "COMPASS",
      "merchantId": "158426"
    },
    "amount": 0.00,
    "currency": "AUD",
    "frequency": "SINGLE",
    "id": "000000000006",
    "receipt": "RR2217",
    "source": "INTERNET",
    "terminal": "WIL00002",
    "type": "VERIFICATION"
  },
  "version": "44"
}