{
  "init": "Go",
  "initmethod": "update",
  "clearhmc": "false",
  "essential": "false",
  "localizetypes": "false",
  "wileycominitialdata_sample": "true",
  "wileycominitialdata_deactivateJob": [
    "no"
  ],
  "wileycominitialdata_importCoreData": [
    "no"
  ],
  "wileycominitialdata_importUatData": [
    "no"
  ],
  "wileycominitialdata_importPerfData": [
    "no"
  ],
  "wileycominitialdata_importExportedProductData": [
    "no"
  ],
  "wileycominitialdata_importExportedContentData": [
    "no"
  ],
  "wileycominitialdata_importSampleData": [
    "no"
  ],
  "wileycominitialdata_syncCatalogs": [
    "yes"
  ],
  "wileycominitialdata_executeSolrProductIndexing": [
    "no"
  ],
  "wileycominitialdata_activateJobs": [
    "no"
  ]
}