# &Item;@password;CN;DN;Europe1PriceFactory_UDG;Europe1PriceFactory_UPG;Europe1PriceFactory_UTG;assignedComments;authorizedToUnlockPages;carts;cockpitFavoriteCategories;cockpitSavedQueries;description;domain;groups;hmcLoginDisabled;lastLogin;ldapaccount;ldaplogin;ldapsearchbase;lockedPages;loginDisabled;name;orders;passwordAnswer;passwordEncoding;passwordQuestion;profilePicture;readSavedQueries;readableCatalogVersions;restrictions;sessionCurrency;sessionLanguage;syncJobs;ticketstores;uid;visibleTemplates;watchedComments;writableCatalogVersions
Item0;md5:0494c02ea17cbb46a66567fc524c0d7d;;;;;;;;;;;administrator description;;admingroup;;;false;;;;;Administrator;;;md5;;;;;;;en;;;admin;;;
Item1;md5:e6cd94aae02d83e702eace5635e6429d;;;;;;;false;;;;Analytics manager;;analyticsperspectivegroup,employeegroup;;;false;;;;false;Analytics Manager;;;md5;;;;;;USD;en;;;analyticsmanager;;;
Item2;md5:3b62b6869b88cd4b987a31b5c87d5d1b;;;;;;;false;;;;Assisted Service Agent;;asagentsalesmanagergroup;;;false;;;;false;Assisted Service Agent;;;md5;;;;;;;;;;asagent;;;
Item3;md5:7b3c2f9016ace9539a870b0ec1747c25;;;;;;;false;;;;Assisted Service CS Manager;;asagentsalesmanagergroup;;;false;;;;false;Assisted Service CS Manager;;;md5;;;;;;;;;;asagentmanager;;;
Item4;md5:81125baa7018a9b027d17a43d390498c;;;;;;;false;;;;Assisted Service Sales Agent;;asagentsalesgroup;;;false;;;;false;Assisted Service Sales Agent;;;md5;;;;;;;;;;asagentsales;;;
Item5;md5:3ce8296a30fd6be88707172ac061cd7f;;;;;;;false;;;;CMS manager;;cmsmanagergroup;;;false;;;;false;CMS Manager;;;md5;;;;welContentCatalog:Online,welContentCatalog:Staged,agsContentCatalog:Online,agsContentCatalog:Staged;;USD;en;;;cmsmanager;;;welContentCatalog:Online,welContentCatalog:Staged,agsContentCatalog:Online,agsContentCatalog:Staged
Item6;md5:7ebbe8300fcedbb8a9ca68d64905fd55;;;;;;;false;;;;Customer service agent. Can edit order and customer data. Can read product data.;;csagentgroup;;;false;;;;false;Customer Service Agent;;;md5;;;;;;EUR;en;;;csagent;;;
Item7;md5:15acba7df7de41bbc5ecda4feb08048f;EmployeeCN;EmployeeDN;STUDENT:UserDiscountGroup;;;;false;;;;Employee Description;EmployeeMSDomain;admingroup,employeegroup;;;false;EmployeeLDAPLogin;;;false;Employee Name;;employee;md5;employee;;;;;USD;pt;;;employee;;;
Item8;md5:8edd2f7f841d594dd0ff594f1ad8dd1d;;;;;;;false;;;;Product manager;;productmanagergroup;;;false;;;;false;Product Manager;;;md5;;;;agsProductCatalog:Online,agsProductCatalog:Staged,welProductCatalog:Online,welProductCatalog:Staged;;EUR;en;;;productmanager;;;welProductCatalog:Online,welProductCatalog:Staged,agsProductCatalog:Online,agsProductCatalog:Staged
