{
  "priority": 2,
  "request": {
    "method": "GET",
    "urlPathPattern": "/sessions/userid401"
  },
  "response": {
    "headers": {
      "Content-Type": "application/json;charset=utf-8"
    },
    "status": 200,
    "bodyFileName": "alm/authentication/v2/users/response_user_401.json"
  }
}