{
  "priority": 2,
  "request": {
    "method": "GET",
    "url": "/v2/users/alm_id2",
    "headers": {
      "Content-Type": {
        "equalTo": "application/json"
      },
      "Accept": {
        "equalTo": "application/json"
      },
      "x-application-id": {
        "matches": ".*"
      },
      "x-Request-ID": {
        "matches": ".*"
      }
    }
  },
  "response": {
    "headers": {
      "Content-Type": "application/json;charset=utf-8",
      "Content-Encoding": "identity"
    },
    "status": 200,
    "bodyFileName": "alm/v2/users/response_get_alm_user_2.json"
  }
}