{
  "priority": 2,
  "request": {
    "method": "GET",
    "url": "/v2/users/userid401",
    "headers": {
      "Content-Type": {
        "equalTo": "application/json"
      },
      "Accept": {
        "equalTo": "application/json"
      },
      "x-application-id": {
        "matches": ".*"
      },
      "x-Request-ID": {
        "matches": ".*"
      }
    }
  },
  "response": {
    "headers": {
      "Content-Type": "application/json;charset=utf-8"
    },
    "status": 401,
    "bodyFileName": "alm/v2/users/response_user_401.json"
  }
}