{
  "cardId": 85,
  "entries": [
    {
      "isbn": "WCOM_PRODUCT4_HARDCOVER",
      "quantity": 1,
      "originalPrice": 1111.99,
      "discountedPrice": 888.88
    }
  ],
  "errors": [
  {
    "code": "123",
    "isbn": "WCOM_PRODUCT_HARDCOVER"
  }
],
  "totalQuantity": 1,
  "subtotalPrice": 888.88
}