{
  "request": {
    "method": "PUT",
    "urlPattern": "/api/rest/version/44/merchant/.*",
    "bodyPatterns": [
      {
        "matchesJsonPath": "$..[?(@.apiOperation == 'REFUND')]"
      }
    ]
  },
  "response": {
    "status": 200,
    "headers": {
      "Content-Type": "application/json"
    }
  }
}