{
  "priority": 1,
  "request": {
    "method": "POST",
    "urlPattern": "/carts/inventory/check",
    "headers": {
      "Content-Type": {
        "equalTo": "application/json"
      },
      "Accept": {
        "equalTo": "application/json"
      },
      "Src": {
        "equalTo": "hybris"
      },
      "TransactionId": {
        "matches": ".*"
      },
      "Authorization": {
        "matches": ".+"
      }
    },
    "bodyPatterns": [
      {
        "matchesJsonPath": "$..[?(@.deliveryOptionCode == 'unavailable503')]"
      }
    ]
  },
  "response": {
    "headers": {
      "Content-Type": "application/json"
    },
    "status": 503
  }
}
