#code[unique = true];baseProduct;supercategories;editionFormat;ISBN;name[lang = en]
WEL_CPA_PLATINUM_REVIEW_COURSE_SET_EBOOK;WEL_CPA_PLATINUM_REVIEW_COURSE;WEL_CPA_TYPE_EBOOK, WEL_CPA_PART_SET;DIGITAL_AND_PHYSICAL;???4000C2015-set-ebook???;Platinum CPA Review Course: Complete (eBook) 2015
WEL_CPA_PLATINUM_REVIEW_COURSE_SET_PRINT;WEL_CPA_PLATINUM_REVIEW_COURSE;WEL_CPA_TYPE_PRINT, WEL_CPA_PART_SET;DIGITAL_AND_PHYSICAL;???4000C2015-set-print???;Platinum CPA Review Course: Complete (Print) 2015
WEL_CPA_GOLD_REVIEW_COURSE_SET_EBOOK;WEL_CPA_GOLD_REVIEW_COURSE;WEL_CPA_TYPE_EBOOK, WEL_CPA_PART_SET;DIGITAL_AND_PHYSICAL;???4000B2015-set-ebook???;Gold CPA Review Course: Complete (eBook) 2015
WEL_CPA_GOLD_REVIEW_COURSE_SET_PRINT;WEL_CPA_GOLD_REVIEW_COURSE;WEL_CPA_TYPE_PRINT, WEL_CPA_PART_SET;DIGITAL_AND_PHYSICAL;???4000B2015-set-print???;Gold CPA Review Course: Complete (Print) 2015
WEL_CPA_SILVER_REVIEW_COURSE_SET_EBOOK;WEL_CPA_SILVER_REVIEW_COURSE;WEL_CPA_TYPE_EBOOK, WEL_CPA_PART_SET;DIGITAL_AND_PHYSICAL;???5001C2015-set-ebook???;Silver CPA Review Course: Complete (eBook) 2015
WEL_CPA_SILVER_REVIEW_COURSE_SET_PRINT;WEL_CPA_SILVER_REVIEW_COURSE;WEL_CPA_TYPE_PRINT, WEL_CPA_PART_SET;DIGITAL_AND_PHYSICAL;???5001C2015-set-print???;Silver CPA Review Course: Complete (Print) 2015
WEL_CMA_REVIEW_COURSE_SET_EBOOK;WEL_CMA_REVIEW_COURSE;WEL_CMA_TYPE_EBOOK, WEL_CMA_PART_SET;DIGITAL_AND_PHYSICAL;???5003C2015-set-ebook???;Wiley CMAexcel Exam Review Course 2016: Complete Exam (VitalSource eBook)
WEL_CMA_REVIEW_COURSE_SET_PRINT;WEL_CMA_REVIEW_COURSE;WEL_CMA_TYPE_PRINT, WEL_CMA_PART_SET;DIGITAL_AND_PHYSICAL;???5003C2015-set-print???;Wiley CMAexcel Exam Review Course 2016: Complete Exam
WEL_CMA_LEARNING_SYSTEM_SET_EBOOK;WEL_CMA_LEARNING_SYSTEM;WEL_CMA_TYPE_EBOOK, WEL_CMA_PART_SET;DIGITAL;???5005C2015-set-ebook???;Wiley CMAexcel Learning System Exam Review 2016: Complete Set(VitalSource eBook)
WEL_CMA_LEARNING_SYSTEM_SET_PRINT;WEL_CMA_LEARNING_SYSTEM;WEL_CMA_TYPE_PRINT, WEL_CMA_PART_SET;PHYSICAL;???5005C2015-set-print???;Wiley CMAexcel Learning System Exam Review 2016: Complete Set
WEL_CMA_ONLINE_INTENSIVE_REVIEW_SET_ONLINE;WEL_CMA_ONLINE_INTENSIVE_REVIEW;WEL_CMA_TYPE_EBOOK, WEL_CMA_PART_SET;DIGITAL;???5007C2015-set-ebook???;Wiley CMAexcel Exam Review 2016, Online Intensive Review 2016+ Test Bank: Complete Set
WEL_CMA_LEARNING_SYSTEM_AND_OIR_SET_EBOOK;WEL_CMA_LEARNING_SYSTEM_AND_OIR;WEL_CMA_TYPE_EBOOK, WEL_CMA_PART_SET;DIGITAL;???5007C2015-set-print???;Wiley CMAexcel Learning System Exam Review 2016 and Online Intensive Review : Complete Set (VitalSource eBook)
WEL_CMA_LEARNING_SYSTEM_AND_OIR_SET_PRINT;WEL_CMA_LEARNING_SYSTEM_AND_OIR;WEL_CMA_TYPE_PRINT, WEL_CMA_PART_SET;PHYSICAL;???5009C2015-set-ebook???;Wiley CMAexcel Learning System Exam Review 2016 and Online Intensive Review : Complete Set
WEL_CMA_FLASH_CARDS_SET_PRINT;WEL_CMA_FLASH_CARDS;WEL_CMA_TYPE_PRINT, WEL_CMA_PART_SET;PHYSICAL;???5009C2015-set-print???;Wiley CMAexcel Exam Review 2016, Flashcards: Complete Set
