{
  "entries": [
    {
      "sapProductCode": "D1A5279D-B27D-4CD4-A05E-EFDD53D08E8D",
      "isbn": "978-3-16-148410-0",
      "statuses": [
        {
          "quantity": "2",
          "status": "IN_STOCK",
          "estimatedDeliveryDate": "2016-07-30T23:20:50.235-07:00"
        }
      ]
    }
  ]
}