{
  "priority": "1",
  "request": {
    "urlPattern": "/users/test@mail.com/password",
    "method": "POST",
    "bodyPatterns": [
      {
        "matchesJsonPath": "$.[?(@.newPassword == 'passwordError403')]"
      },
      {
        "matchesJsonPath": "$.[?(@.oldPassword == 'oldPassword')]"
      }
    ],
    "headers": {
      "Authorization": {
        "equalTo": "bearer bd55e2ce-92b0-46a2-a8f4-82a69440b586"
      },
      "Src": {
        "equalTo": "hybris"
      },
      "TransactionId": {
        "equalTo": "randomString"
      }
    }
  },
  "response": {
    "status": 403,
    "headers": {
      "Content-Type": "application/json"
    }
  }
}
