{
  "sapAccountNumber": "test_sap_account_number",
  "accountEcidNumber": "test_account_Ecid_Number",
  "name": [{"loc": "en", "val": "test_b2b_unit_name_en"}, {"loc": "fr", "val": "test_b2b_unit_name_fr"}],
  "salesRepContactName": "test_salesRep_Contact_Name",
  "salesRepContactEmail": "sales@contact.email",
  "salesRepContactPhone": "test_sales_Rep_Contact_Phone",
  "soldToAddress": 
	{
		"addressId": "test_billing_external_address_id", 
		"postcode": "test_billing_address_postcode",
		"country": "US",
		"state": "CA",
		"city": "test_billing_address_city",
		"line1": "test_billing_address_line1",
		"line2": "test_billing_address_line2",
		"firstName": "test_billing_address_firstName",
		"lastName": "test_billing_address_lastName",
		"phoneNumber": "test_billing_address_phoneNumber"
	},
  "shippingAddresses":[
  {
		"addressId": "test_shipping1_external_address_id", 
		"postcode": "test_shipping1_address_postcode",
		"country": "US",
		"state": "CA",
		"city": "test_shipping1_address_city",
		"line1": "test_shipping1_address_line1",
		"line2": "test_shipping1_address_line2",
		"firstName": "test_shipping1_address_firstName",
		"lastName": "test_shipping1_address_lastName",
		"phoneNumber": "test_shipping1_address_phoneNumber"
	},
	{
		"addressId": "test_shipping2_external_address_id", 
		"postcode": "test_shipping2_address_postcode",
		"country": "US",
		"state": "CA",
		"city": "test_shipping2_address_city",
		"line1": "test_shipping2_address_line1",
		"line2": "test_shipping2_address_line2",
		"firstName": "test_shipping2_address_firstName",
		"lastName": "test_shipping2_address_lastName",
		"phoneNumber": "test_shipping2_address_phoneNumber"
	}
  ]
}
