{
  "repositoryId": "TESTWILEYSON01_TEST",
  "response": {
    "gatewayCode": "BASIC_VERIFICATION_SUCCESSFUL"
  },
  "result": "SUCCESS",
  "sourceOfFunds": {
    "provided": {
      "card": {
        "brand": "VISA",
        "expiry": "0521",
        "fundingMethod": "DEBIT",
        "issuer": "THE CO-OPERATIVE BANK PLC",
        "number": "450875xxxxxx1019",
        "scheme": "VISA"
      }
    },
    "type": "CARD"
  },
  "status": "VALID",
  "token": "4508753994831019",
  "usage": {
    "lastUpdated": "2017-10-19T11:58:11.114Z",
    "lastUpdatedBy": "TESTWILEYABATEST",
    "lastUsed": "2017-10-13T13:07:05.226Z"
  },
  "verificationStrategy": "BASIC"
}