{
  "priority": 1,
  "request": {
    "urlPattern": "/customers/[^/]+/shippingAddresses/malformed_request",
    "method": "DELETE",
    "headers": {
      "Content-Type": {
        "equalTo": "application/json"
      },
      "Accept": {
        "equalTo": "application/json"
      },
      "authorization": {
        "equalTo": "bearer bd55e2ce-92b0-46a2-a8f4-82a69440b586"
      },
      "src": {
        "equalTo": "hybris"
      },
      "transactionId": {
        "matches": ".*"
      }
    }
  },
  "response": {
    "status": 400,
    "headers": {
      "Content-Type": "application/json"
    },
    "jsonBody": {
      "code" : "400"
    }
  }
}
