{
  "request": {
    "urlPattern": "/orders",
    "method": "POST",
    "headers": {
      "Content-Type": {
        "equalTo": "application/json"
      },
      "Accept": {
        "equalTo": "application/json"
      },
      "authorization": {
        "equalTo": "bearer bd55e2ce-92b0-46a2-a8f4-82a69440b586"
      },
      "src": {
        "equalTo": "hybris"
      },
      "transactionId": {
        "equalTo": "randomString"
      }
    },
    "bodyPatterns": [
      {
        "matchesJsonPath": "$.code"
      },
      {
        "matchesJsonPath": "$.userId"
      },
      {
        "matches": "^(.*)\"salesModel\"\\s*:\\s*\"B2B\"(.*)$"
      },
      {
        "matchesJsonPath": "$.website"
      },
      {
        "matches": "^(.*)\"isUserGuest\"\\s*:\\s*\"?(?i)(true|false)\"?(.*)$"
      },
      {
        "matchesJsonPath": "$.immutableUserId"
      },
      {
        "matches": "^(.*)\"country\"\\s*:\\s*\"([A-Z]{2})\"(.*)$"
      },
      {
        "matches": "^(.*)\"currency\"\\s*:\\s*\"([a-zA-Z]{3})\"(.*)$"
      },
      {
        "matches": "^(.*)\"language\"\\s*:\\s*\"([a-zA-Z]{2})\"(.*)$"
      },
      {
        "matches": "^(.*)\"orderType\"\\s*:\\s*\"([A-Z_]+)\"(.*)$"
      }
    ]
  },

  "response": {
    "headers": {
      "Content-Type": "application/json"
    }
  }
}
