{
  "entries": [
    {
      "isbn": "222222222223",
      "quantity": 1,
      "basePrice": 200.55,
      "discounts": [
        {
          "name": "EXTERNAL_VOUCHER_10_PERCENT",
          "absolute": false,
          "value": 10
        }
      ],
      "totalPrice":  200.55,
      "inventoryStatuses": [
        {
          "quantity": 1,
          "status": "IN_STOCK",
          "estimatedDeliveryDate": "2017-07-04T12:08:56.235-07:00"
        }
      ]
    }
  ],
  "subtotal": 200.55,
  "totalDiscount": 20.055,
  "deliveryCost": 0,
  "totalTax": 0,
  "totalPrice": 180.495
}
