{
  "priority": 1,
  "request": {
    "method": "POST",
    "urlPathPattern": "/addresses/suggestions",
    "headers": {
      "Content-Type": {
        "equalTo": "application/json"
      }
    },
    "bodyPatterns": [
      {
        "matchesJsonPath": {
          "expression": "$.ADDRESS_LINE_1",
          "equalTo": "400"
        }
      }
    ]
  },
  "response": {
    "headers": {
      "Content-Type": "application/json;charset=utf-8"
    },
    "status": 400
  }
}