{
  "priority": 2,
  "request": {
    "method": "POST",
    "urlPathPattern": "/addresses/suggestions",
    "headers": {
      "Content-Type": {
        "equalTo": "application/json"
      }
    },
    "bodyPatterns": [
      {
        "matchesJsonPath": {
          "expression": "$.COUNTRY",
          "equalTo": "FR"
        }
      }
    ]
  },
  "response": {
    "headers": {
      "Content-Type": "application/json;charset=utf-8"
    },
    "status": 200,
    "bodyFileName": "addresses/suggestions/response_suggest_FR_200.json",
    "transformers": [
      "response-template"
    ]
  }
}