{
    "priority" : 1,
    "request": {
        "urlPattern": "/b2b/accounts/[^/]+/carts/[^/]+",
        "method": "PUT",
        "bodyPatterns": [
            {
                "matchesJsonPath": "$.deliveryAddress[?(@.postcode == '49503')]"
            },
            {
                "matchesJsonPath": "$.deliveryAddress[?(@.country == 'US')]"
            },
            {
                "matchesJsonPath": "$.deliveryAddress[?(@.state == 'MN')]"
            },
            {
                "matchesJsonPath": "$.deliveryAddress[?(@.city == 'Grand Rapids')]"
            },
            {
                "matchesJsonPath": "$.deliveryAddress[?(@.line1 == '1644 Amethyst Drive')]"
            },
            {
                "equalToJson": "{\"entries\":[{\"sapProductCode\":\"sapWCOM_B2B_PHYSICAL\",\"isbn\":\"222222222224\",\"quantity\":5}]}",
                "ignoreArrayOrder": true,
                "ignoreExtraElements": true
            }
        ]
    },
    "response": {
        "status": 200,
        "headers": {
            "Content-Type": "application/json"
        },
        "bodyFileName": "esb/verifyandcalculatecart/specialCases/totalAndShipping.json"
    }
}



